<?xml version="1.0" encoding="UTF-8"?>

<svg xmlns="http://www.w3.org/2000/svg" x="0px" y="0px" width="1920" height="1080" viewBox="-960.0 -540.0 1920 1080">
	<g name="Line Art">
		<g frame="1" fill="none" stroke-width="3" stroke="black" stroke-linecap="round" opacity="1" size="3">
			<g name="Cube">
				<polyline points="-150.6505126953125 296.79693603515625 -164.00830078125 -152.35888671875 -467.5787658691406 -287.1584930419922 -907.8959197998047 -161.03302001953125 -834.4534912109375 285.773681640625 -569.5749816894531 502.187744140625 -150.6505126953125 296.79693603515625 " size="7">
					<depth>10.934123992919922 10.043581008911133 11.346697807312012 10.118356704711914 11.008899688720703 9.70578384399414 10.934123992919922 </depth>
					<next-frame>
						<transform>12.314000129699707 -11.229999542236328 8.501999855041504 -8.00100040435791 -1.2630000114440918 -3.7960000038146973 6.199999809265137 5.525000095367432 11.324999809265137 3.3429999351501465 24.549999237060547 -2.114000082015991 12.314000129699707 -11.229999542236328 </transform>
						<qi>0 0 0 0 0 0 0 </qi>
					</next-frame>
				</polyline>
				<polyline points="-164.00830078125 -152.35888671875 -627.115234375 11.19451904296875 -907.8959197998047 -161.03302001953125 " size="3">
					<depth>10.043581008911133 8.815240859985352 10.118356704711914 </depth>
					<next-frame>
						<transform>8.501999855041504 -8.00100040435791 20.750999450683594 1.8760000467300415 6.199999809265137 5.525000095367432 </transform>
						<qi>0 0 0 </qi>
					</next-frame>
				</polyline>
				<polyline points="-627.115234375 11.19451904296875 -569.5749816894531 502.187744140625 " size="2">
					<depth>8.815240859985352 9.70578384399414 </depth>
					<next-frame>
						<transform>20.750999450683594 1.8760000467300415 24.549999237060547 -2.114000082015991 </transform>
						<qi>0 0 </qi>
					</next-frame>
				</polyline>
			</g>
		</g>
		<g frame="2" fill="none" stroke-width="3" stroke="gray" stroke-linecap="round" opacity="0.8999999999999999" size="3">
			<g name="Cube">
				<polyline points="-138.3360595703125 285.56689453125 -155.5064697265625 -160.35980224609375 -468.84130859375 -290.954833984375 -901.6956748962402 -155.50762939453125 -823.1287078857422 289.1162109375 -545.0251770019531 500.0733642578125 -138.3360595703125 285.56689453125 " size="7">
					<depth>10.98689079284668 10.080538749694824 11.352301597595215 10.102843284606934 11.009195327758789 9.737432479858398 10.98689079284668 </depth>
					<next-frame>
						<transform>32.59299850463867 -31.854999542236328 23.1299991607666 -21.992000579833984 -3.3959999084472656 -9.973999977111816 19.843000411987305 16.249000549316406 33.20600128173828 8.947999954223633 68.97799682617188 -7.480000019073486 32.59299850463867 -31.854999542236328 </transform>
						<qi>0 0 0 0 0 0 0 </qi>
					</next-frame>
				</polyline>
				<polyline points="-155.5064697265625 -160.35980224609375 -606.3642272949219 13.07025146484375 -901.6956748962402 -155.50762939453125 " size="3">
					<depth>10.080538749694824 8.831080436706543 10.102843284606934 </depth>
					<next-frame>
						<transform>23.1299991607666 -21.992000579833984 59.948001861572266 5.107999801635742 19.843000411987305 16.249000549316406 </transform>
						<qi>0 0 0 </qi>
					</next-frame>
				</polyline>
				<polyline points="-606.3642272949219 13.07025146484375 -545.0251770019531 500.0733642578125 " size="2">
					<depth>8.831080436706543 9.737432479858398 </depth>
					<next-frame>
						<transform>59.948001861572266 5.107999801635742 68.97799682617188 -7.480000019073486 </transform>
						<qi>0 0 </qi>
					</next-frame>
				</polyline>
			</g>
		</g>
		<g frame="3" fill="none" stroke-width="3" stroke="gray" stroke-linecap="round" opacity="0.8499999999999999" size="3">
			<g name="Cube">
				<polyline points="-105.7431640625 253.7119140625 -132.37689208984375 -182.3516845703125 -472.23712158203125 -300.9289245605469 -881.8530807495117 -139.259033203125 -789.92236328125 298.064453125 -476.04669189453125 492.59326171875 -105.7431640625 253.7119140625 " size="7">
					<depth>11.13861083984375 10.183653831481934 11.36154556274414 10.057464599609375 11.012421607971191 9.834529876708984 11.13861083984375 </depth>
					<next-frame>
						<transform>43.805999755859375 -49.2140007019043 33.43600082397461 -32.11199951171875 -4.186999797821045 -13.190999984741211 37.987998962402344 26.753000259399414 54.53200149536133 12.208000183105469 104.2959976196289 -15.83899974822998 43.805999755859375 -49.2140007019043 </transform>
						<qi>0 0 0 0 0 0 0 </qi>
					</next-frame>
				</polyline>
				<polyline points="-132.37689208984375 -182.3516845703125 -546.4163818359375 18.17852783203125 -881.8530807495117 -139.259033203125 " size="3">
					<depth>10.183653831481934 8.879571914672852 10.057464599609375 </depth>
					<next-frame>
						<transform>33.43600082397461 -32.11199951171875 96.05999755859375 7.109000205993652 37.987998962402344 26.753000259399414 </transform>
						<qi>0 0 0 </qi>
					</next-frame>
				</polyline>
				<polyline points="-546.4163818359375 18.17852783203125 -476.04669189453125 492.59326171875 " size="2">
					<depth>8.879571914672852 9.834529876708984 </depth>
					<next-frame>
						<transform>96.05999755859375 7.109000205993652 104.2959976196289 -15.83899974822998 </transform>
						<qi>0 0 </qi>
					</next-frame>
				</polyline>
			</g>
		</g>
		<g frame="4" fill="none" stroke-width="3" stroke="gray" stroke-linecap="round" opacity="0.7999999999999998" size="3">
			<g name="Cube">
				<polyline points="-61.93682861328125 204.49774169921875 -98.94073486328125 -214.46347045898438 -476.4239501953125 -314.12017822265625 -843.8646087646484 -112.50582885742188 -735.3906707763672 310.2723388671875 -371.7506103515625 476.7545166015625 -61.93682861328125 204.49774169921875 " size="7">
					<depth>11.378582954406738 10.338377952575684 11.356462478637695 9.984792709350586 11.024996757507324 10.006912231445312 11.378582954406738 </depth>
					<next-frame>
						<transform>44.54800033569336 -62.33100128173828 39.803001403808594 -37.814998626708984 -1.7879999876022339 -12.968000411987305 63.349998474121094 36.650001525878906 74.92900085449219 12.39799976348877 126.96900177001953 -27.4950008392334 44.54800033569336 -62.33100128173828 </transform>
						<qi>0 0 0 0 0 0 0 </qi>
					</next-frame>
				</polyline>
				<polyline points="-98.94073486328125 -214.46347045898438 -450.35589599609375 25.28704833984375 -843.8646087646484 -112.50582885742188 " size="3">
					<depth>10.338377952575684 8.966708183288574 9.984792709350586 </depth>
					<next-frame>
						<transform>39.803001403808594 -37.814998626708984 128.2429962158203 7.113999843597412 63.349998474121094 36.650001525878906 </transform>
						<qi>0 0 0 </qi>
					</next-frame>
				</polyline>
				<polyline points="-450.35589599609375 25.28704833984375 -371.7506103515625 476.75445556640625 " size="2">
					<depth>8.966708183288574 10.006912231445312 </depth>
					<next-frame>
						<transform>128.2429962158203 7.113999843597412 126.96900177001953 -27.4950008392334 </transform>
						<qi>0 0 </qi>
					</next-frame>
				</polyline>
			</g>
		</g>
		<g frame="5" fill="none" stroke-width="3" stroke="gray" stroke-linecap="round" opacity="0.7499999999999998" size="3">
			<g name="Cube">
				<polyline points="-17.38873291015625 142.1669921875 -59.13751220703125 -252.27816772460938 -478.21185302734375 -327.08824157714844 -780.5141143798828 -75.85568237304688 -660.461669921875 322.6702880859375 -244.7813720703125 449.2591552734375 -17.38873291015625 142.1669921875 " size="7">
					<depth>11.690804481506348 10.527426719665527 11.315757751464844 9.892702102661133 11.056079864501953 10.267748832702637 11.690804481506348 </depth>
					<next-frame>
						<transform>36.00699996948242 -70.2239990234375 43.94499969482422 -39.28200149536133 6.53000020980835 -9.57699966430664 96.92400360107422 44.58000183105469 92.69000244140625 9.293000221252441 133.68899536132812 -40.94499969482422 36.00699996948242 -70.2239990234375 </transform>
						<qi>0 0 0 0 0 0 0 </qi>
					</next-frame>
				</polyline>
				<polyline points="-59.13751220703125 -252.27816772460938 -322.1124267578125 32.4013671875 -780.5141143798828 -75.85568237304688 " size="3">
					<depth>10.527426719665527 9.104371070861816 9.892702102661133 </depth>
					<next-frame>
						<transform>43.94499969482422 -39.28200149536133 153.69500732421875 4.379000186920166 96.92400360107422 44.58000183105469 </transform>
						<qi>0 0 0 </qi>
					</next-frame>
				</polyline>
				<polyline points="-322.1124267578125 32.4013671875 -244.7813720703125 449.2591552734375 " size="2">
					<depth>9.104371070861816 10.267748832702637 </depth>
					<next-frame>
						<transform>153.69500732421875 4.379000186920166 133.68899536132812 -40.94499969482422 </transform>
						<qi>0 0 </qi>
					</next-frame>
				</polyline>
			</g>
		</g>
		<g frame="6" fill="none" stroke-width="3" stroke="gray" stroke-linecap="round" opacity="0.6999999999999997" size="3">
			<g name="Cube">
				<polyline points="18.61767578125 71.94281005859375 -15.1929931640625 -291.55967712402344 -471.68157958984375 -336.66546630859375 -683.5899963378906 -31.27593994140625 -567.7716064453125 331.9635009765625 -111.0924072265625 408.314453125 18.61767578125 71.94281005859375 " size="7">
					<depth>12.049708366394043 10.73323917388916 11.22253704071045 9.79863452911377 11.115102767944336 10.625804901123047 12.049708366394043 </depth>
					<next-frame>
						<transform>21.6200008392334 -72.46800231933594 47.987998962402344 -37.30799865722656 23.68400001525879 -3.9539999961853027 136.6020050048828 48.4630012512207 105.45999908447266 3.430999994277954 123.51000213623047 -53.3489990234375 21.6200008392334 -72.46800231933594 </transform>
						<qi>0 0 0 0 0 0 0 </qi>
					</next-frame>
				</polyline>
				<polyline points="-15.1929931640625 -291.55967712402344 -168.41748046875 36.78021240234375 -683.5899963378906 -31.27593994140625 " size="3">
					<depth>10.73323917388916 9.30933666229248 9.79863452911377 </depth>
					<next-frame>
						<transform>47.987998962402344 -37.30799865722656 168.07000732421875 -1.3350000381469727 136.6020050048828 48.4630012512207 </transform>
						<qi>0 0 0 </qi>
					</next-frame>
				</polyline>
				<polyline points="-168.41748046875 36.78021240234375 -111.0924072265625 408.314453125 " size="2">
					<depth>9.30933666229248 10.625804901123047 </depth>
					<next-frame>
						<transform>168.07000732421875 -1.3350000381469727 123.51000213623047 -53.3489990234375 </transform>
						<qi>0 0 </qi>
					</next-frame>
				</polyline>
			</g>
		</g>
		<g frame="7" fill="none" stroke-width="3" stroke="gray" stroke-linecap="round" opacity="0.6499999999999997" size="3">
			<g name="Cube">
				<polyline points="40.2374267578125 -0.52471923828125 32.794677734375 -328.8677673339844 -447.998046875 -340.6199035644531 -546.9877014160156 17.18731689453125 -462.3118896484375 335.39410400390625 12.41717529296875 354.9649658203125 40.2374267578125 -0.52471923828125 " size="7">
					<depth>12.419200897216797 10.94172477722168 11.0722074508667 9.730552673339844 11.208028793334961 11.077546119689941 12.419200897216797 </depth>
					<next-frame>
						<transform>6.044000148773193 -69.52200317382812 53.38199996948242 -33.07099914550781 51.5369987487793 2.4210000038146973 176.09500122070312 46.25600051879883 111.46399688720703 -3.8540000915527344 99.38099670410156 -61.69499969482422 6.044000148773193 -69.52200317382812 </transform>
						<qi>1 0 0 0 0 0 1 </qi>
					</next-frame>
				</polyline>
				<polyline points="32.794677734375 -328.8677673339844 -0.347412109375 35.4451904296875 -546.9877014160156 17.18731689453125 " size="3">
					<depth>10.94172477722168 9.600069046020508 9.730552673339844 </depth>
					<next-frame>
						<transform>53.38199996948242 -33.07099914550781 167.21499633789062 -9.253999710083008 176.09500122070312 46.25600051879883 </transform>
						<qi>0 0 0 </qi>
					</next-frame>
				</polyline>
				<polyline points="-0.347412109375 35.4451904296875 12.41717529296875 354.96490478515625 " size="2">
					<depth>9.600069046020508 11.077546119689941 </depth>
					<next-frame>
						<transform>167.21499633789062 -9.253999710083008 99.38099670410156 -61.69499969482422 </transform>
						<qi>0 0 </qi>
					</next-frame>
				</polyline>
			</g>
		</g>
		<g frame="8" fill="none" stroke-width="3" stroke="gray" stroke-linecap="round" opacity="0.5999999999999996" size="2">
			<g name="Cube">
				<polyline points="86.1766357421875 -361.9388885498047 166.8673095703125 26.19097900390625 111.7977294921875 293.26953125 -350.84832763671875 331.54010009765625 -370.8924560546875 63.4432373046875 -396.4608154296875 -338.19927978515625 86.1766357421875 -361.9388885498047 " size="7">
					<depth>11.146112442016602 9.990859985351562 11.601343154907227 11.333499908447266 9.723016738891602 10.87826919555664 11.146112442016602 </depth>
					<next-frame>
						<transform>60.07099914550781 -27.81800079345703 149.76100158691406 -17.538000106811523 67.67500305175781 -64.08699798583984 110.68900299072266 -10.815999984741211 205.79800415039062 37.165000915527344 89.20999908447266 7.724999904632568 60.07099914550781 -27.81800079345703 </transform>
						<qi>0 0 0 0 0 0 0 </qi>
					</next-frame>
				</polyline>
				<polyline points="166.8673095703125 26.19097900390625 -370.8924560546875 63.4432373046875 " size="2">
					<depth>9.990859985351562 9.723016738891602 </depth>
					<next-frame>
						<transform>149.76100158691406 -17.538000106811523 205.79800415039062 37.165000915527344 </transform>
						<qi>0 0 </qi>
					</next-frame>
				</polyline>
			</g>
		</g>
		<g frame="9" fill="none" stroke-width="3" stroke="gray" stroke-linecap="round" opacity="0.5499999999999996" size="3">
			<g name="Cube">
				<polyline points="146.24755859375 -389.7573699951172 316.6279296875 8.65301513671875 179.4722900390625 229.18255615234375 -240.15972900390625 320.72418212890625 -357.80462646484375 -67.3778076171875 -307.25042724609375 -330.47401428222656 146.24755859375 -389.7573699951172 " size="7">
					<depth>11.348840713500977 10.484493255615234 12.156698226928711 11.480949401855469 12.345296859741211 10.673091888427734 11.348840713500977 </depth>
					<next-frame>
						<transform>66.34200286865234 -22.569000244140625 118.83399963378906 -23.923999786376953 35.91600036621094 -60.39899826049805 105.1969985961914 -15.991000175476074 33.5890007019043 -19.430999755859375 131.4929962158203 10.196000099182129 66.34200286865234 -22.569000244140625 </transform>
						<qi>0 0 0 0 0 0 0 </qi>
					</next-frame>
				</polyline>
				<polyline points="316.6279296875 8.65301513671875 -165.0943603515625 100.60791015625 -307.2503662109375 -330.47393798828125 " size="3">
					<depth>10.484493255615234 9.808744430541992 10.67309284210205 </depth>
					<next-frame>
						<transform>118.83399963378906 -23.923999786376953 216.61900329589844 22.677000045776367 131.4929962158203 10.196000099182129 </transform>
						<qi>0 0 0 </qi>
					</next-frame>
				</polyline>
				<polyline points="-240.15972900390625 320.72418212890625 -165.0943603515625 100.60791015625 " size="2">
					<depth>11.480949401855469 9.808744430541992 </depth>
					<next-frame>
						<transform>105.1969985961914 -15.991000175476074 216.61900329589844 22.677000045776367 </transform>
						<qi>0 0 </qi>
					</next-frame>
				</polyline>
			</g>
		</g>
		<g frame="10" fill="none" stroke-width="3" stroke="gray" stroke-linecap="round" opacity="0.49999999999999956" size="3">
			<g name="Cube">
				<polyline points="212.5899658203125 -412.32603454589844 435.4622802734375 -15.2705078125 215.387939453125 168.78326416015625 -134.96307373046875 304.73358154296875 -324.2156982421875 -86.80862426757812 -175.757080078125 -320.27796936035156 212.5899658203125 -412.32603454589844 " size="7">
					<depth>11.559775352478027 11.0662841796875 12.69027328491211 11.63238525390625 12.125876426696777 10.501888275146484 11.559775352478027 </depth>
					<next-frame>
						<transform>69.57099914550781 -17.905000686645508 81.29499816894531 -26.73200035095215 10.28499984741211 -52.013999938964844 98.2509994506836 -18.763999938964844 58.303001403808594 -15.756999969482422 168.82200622558594 8.795000076293945 69.57099914550781 -17.905000686645508 </transform>
						<qi>0 0 1 0 0 0 0 </qi>
					</next-frame>
				</polyline>
				<polyline points="435.4622802734375 -15.2705078125 51.5242919921875 123.28497314453125 -175.757080078125 -320.27796936035156 " size="3">
					<depth>11.0662841796875 10.00839614868164 10.501888275146484 </depth>
					<next-frame>
						<transform>81.29499816894531 -26.73200035095215 205.03199768066406 6.373000144958496 168.82200622558594 8.795000076293945 </transform>
						<qi>0 0 0 </qi>
					</next-frame>
				</polyline>
				<polyline points="-134.96307373046875 304.73358154296875 51.5242919921875 123.28497314453125 " size="2">
					<depth>11.63238525390625 10.00839614868164 </depth>
					<next-frame>
						<transform>98.2509994506836 -18.763999938964844 205.03199768066406 6.373000144958496 </transform>
						<qi>0 0 </qi>
					</next-frame>
				</polyline>
			</g>
		</g>
		<g frame="11" fill="none" stroke-width="3" stroke="gray" stroke-linecap="round" opacity="0.4499999999999995" size="2">
			<g name="Cube">
				<polyline points="282.160888671875 -430.2315216064453 516.757568359375 -42.002288818359375 256.556640625 129.6580810546875 -36.71234130859375 285.9698486328125 -265.91229248046875 -102.56610107421875 -6.93536376953125 -311.48280334472656 282.160888671875 -430.2315216064453 " size="7">
					<depth>11.790815353393555 11.70276927947998 10.322805404663086 11.767780303955078 11.855826377868652 10.410852432250977 11.790815353393555 </depth>
					<next-frame>
						<transform>67.60199737548828 -13.942000389099121 44.91299819946289 -25.534000396728516 175.29800415039062 -7.7129998207092285 92.77999877929688 -19.475000381469727 88.36799621582031 -14.439000129699707 190.36300659179688 3.877000093460083 67.60199737548828 -13.942000389099121 </transform>
						<qi>0 0 0 0 0 0 0 </qi>
					</next-frame>
				</polyline>
				<polyline points="256.556640625 129.6580810546875 -6.93536376953125 -311.48280334472656 " size="2">
					<depth>10.322805404663086 10.410852432250977 </depth>
					<next-frame>
						<transform>175.29800415039062 -7.7129998207092285 190.36300659179688 3.877000093460083 </transform>
						<qi>0 0 </qi>
					</next-frame>
				</polyline>
			</g>
		</g>
		<g frame="12" fill="none" stroke-width="3" stroke="gray" stroke-linecap="round" opacity="0.39999999999999947" size="3">
			<g name="Cube">
				<polyline points="561.6710205078125 -67.53668212890625 431.8551025390625 121.9454345703125 56.06805419921875 266.49481201171875 -177.5440673828125 -117.00479125976562 18.6220703125 -265.10894775390625 349.762939453125 -444.1738739013672 561.6710205078125 -67.53668212890625 " size="7">
					<depth>12.346857070922852 10.731232643127441 11.8718843460083 11.574109077453613 13.189733505249023 12.049081802368164 12.346857070922852 </depth>
					<next-frame>
						<transform>15.550000190734863 -21.104000091552734 136.7550048828125 -16.97800064086914 90.09400177001953 -19.047000885009766 117.86199951171875 -15.887999534606934 14.402999877929688 -27.652000427246094 60.0 -10.479999542236328 15.550000190734863 -21.104000091552734 </transform>
						<qi>2 0 0 0 0 0 2 </qi>
					</next-frame>
				</polyline>
				<polyline points="431.8551025390625 121.9454345703125 183.427978515625 -307.60626220703125 349.762939453125 -444.1738739013672 " size="3">
					<depth>10.731232643127441 10.433457374572754 12.049081802368164 </depth>
					<next-frame>
						<transform>136.7550048828125 -16.97800064086914 189.4969940185547 -2.763000011444092 60.0 -10.479999542236328 </transform>
						<qi>0 0 0 </qi>
					</next-frame>
				</polyline>
				<polyline points="183.427978515625 -307.60626220703125 -177.5440673828125 -117.00479125976562 " size="2">
					<depth>10.433457374572754 11.574109077453613 </depth>
					<next-frame>
						<transform>189.4969940185547 -2.763000011444092 117.86199951171875 -15.887999534606934 </transform>
						<qi>0 0 </qi>
					</next-frame>
				</polyline>
			</g>
		</g>
		<g frame="13" fill="none" stroke-width="3" stroke="gray" stroke-linecap="round" opacity="0.3499999999999994" size="3">
			<g name="Cube">
				<polyline points="577.2210693359375 -88.64047241210938 568.6102294921875 104.96734619140625 146.161865234375 247.44732666015625 -59.68218994140625 -132.89248657226562 33.024658203125 -292.76055908203125 409.7633056640625 -454.6543197631836 577.2210693359375 -88.64047241210938 " size="7">
					<depth>12.94826889038086 11.196516990661621 11.939176559448242 11.3228759765625 13.074626922607422 12.331968307495117 12.94826889038086 </depth>
					<next-frame>
						<transform>-4.099999904632568 -14.878999710083008 98.74800109863281 -20.972000122070312 89.44499969482422 -18.408000946044922 139.41600036621094 -19.409000396728516 29.941999435424805 -22.143999099731445 48.316001892089844 -7.275000095367432 -4.099999904632568 -14.878999710083008 </transform>
						<qi>1 0 0 0 0 0 1 </qi>
					</next-frame>
				</polyline>
				<polyline points="568.610107421875 104.96734619140625 372.9249267578125 -310.3692169189453 409.7633056640625 -454.6543197631836 " size="3">
					<depth>11.196516990661621 10.580217361450195 12.331968307495117 </depth>
					<next-frame>
						<transform>98.7490005493164 -20.972000122070312 167.677001953125 -8.755000114440918 48.316001892089844 -7.275000095367432 </transform>
						<qi>0 0 0 </qi>
					</next-frame>
				</polyline>
				<polyline points="372.9249267578125 -310.3692169189453 -59.68218994140625 -132.89248657226562 " size="2">
					<depth>10.580217361450195 11.3228759765625 </depth>
					<next-frame>
						<transform>167.677001953125 -8.755000114440918 139.41600036621094 -19.409000396728516 </transform>
						<qi>0 0 </qi>
					</next-frame>
				</polyline>
			</g>
		</g>
		<g frame="14" fill="none" stroke-width="3" stroke="gray" stroke-linecap="round" opacity="0.2999999999999994" size="2">
			<g name="Cube">
				<polyline points="458.079345703125 -461.9292449951172 62.96685791015625 -314.90467834472656 79.73388671875 -152.30160522460938 235.60693359375 229.03961181640625 667.358642578125 83.99493408203125 540.6021728515625 -319.124267578125 458.079345703125 -461.9292449951172 " size="7">
					<depth>12.626471519470215 12.926192283630371 11.13557243347168 11.974531173706055 11.674811363220215 10.83585262298584 12.626471519470215 </depth>
					<next-frame>
						<transform>35.231998443603516 -4.25600004196167 42.694000244140625 -18.183000564575195 147.125 -23.343000411987305 88.53199768066406 -18.006999969482422 67.14600372314453 -20.808000564575195 133.1439971923828 -12.383000373840332 35.231998443603516 -4.25600004196167 </transform>
						<qi>0 0 0 0 0 0 0 </qi>
					</next-frame>
				</polyline>
				<polyline points="540.6021728515625 -319.124267578125 79.73388671875 -152.30160522460938 " size="2">
					<depth>10.83585262298584 11.13557243347168 </depth>
					<next-frame>
						<transform>133.1439971923828 -12.383000373840332 147.125 -23.343000411987305 </transform>
						<qi>0 0 </qi>
					</next-frame>
				</polyline>
			</g>
		</g>
		<g frame="15" fill="none" stroke-width="3" stroke="gray" stroke-linecap="round" opacity="0.24999999999999933" size="3">
			<g name="Cube">
				<polyline points="105.660400390625 -333.0876159667969 493.3114013671875 -466.1854553222656 673.745849609375 -331.5068054199219 734.504638671875 63.18719482421875 324.1390380859375 211.03277587890625 199.03955078125 15.39190673828125 105.660400390625 -333.0876159667969 " size="7">
					<depth>12.776765823364258 12.912857055664062 11.16433048248291 12.125648498535156 11.989556312561035 13.738083839416504 12.776765823364258 </depth>
					<next-frame>
						<transform>49.60100173950195 -15.175000190734863 23.280000686645508 -1.590000033378601 95.8479995727539 -13.192999839782715 43.79600143432617 -18.114999771118164 84.58399963378906 -17.643999099731445 9.211000442504883 -5.886000156402588 49.60100173950195 -15.175000190734863 </transform>
						<qi>0 0 0 0 0 0 0 </qi>
					</next-frame>
				</polyline>
				<polyline points="673.745849609375 -331.5068054199219 226.859375 -175.6444091796875 105.660400390625 -333.0876159667969 " size="3">
					<depth>11.16433048248291 11.028238296508789 12.776765823364258 </depth>
					<next-frame>
						<transform>95.8479995727539 -13.192999839782715 139.14199829101562 -25.753000259399414 49.60100173950195 -15.175000190734863 </transform>
						<qi>0 0 0 </qi>
					</next-frame>
				</polyline>
				<polyline points="226.859375 -175.6444091796875 324.1390380859375 211.03277587890625 " size="2">
					<depth>11.028238296508789 11.989556312561035 </depth>
					<next-frame>
						<transform>139.14199829101562 -25.753000259399414 84.58399963378906 -17.643999099731445 </transform>
						<qi>0 0 </qi>
					</next-frame>
				</polyline>
			</g>
		</g>
		<g frame="16" fill="none" stroke-width="3" stroke="gray" stroke-linecap="round" opacity="0.1999999999999993" size="3">
			<g name="Cube">
				<polyline points="155.2618408203125 -348.26304626464844 516.5916748046875 -467.77508544921875 769.5941162109375 -344.70018005371094 778.30078125 45.07244873046875 408.7227783203125 193.38836669921875 208.250732421875 9.5062255859375 155.2618408203125 -348.26304626464844 " size="7">
					<depth>12.64860725402832 13.170494079589844 11.518826484680176 12.518641471862793 11.99675464630127 13.648422241210938 12.64860725402832 </depth>
					<next-frame>
						<transform>49.209999084472656 -12.46399974822998 13.960000038146973 0.41999998688697815 63.007999420166016 -11.741999626159668 27.79400062561035 -14.284000396728516 75.48600006103516 -16.634000778198242 16.708999633789062 -2.7170000076293945 49.209999084472656 -12.46399974822998 </transform>
						<qi>0 0 0 0 0 0 0 </qi>
					</next-frame>
				</polyline>
				<polyline points="769.5941162109375 -344.70018005371094 366.0018310546875 -201.39736938476562 155.2618408203125 -348.26304626464844 " size="3">
					<depth>11.518826484680176 10.996939659118652 12.64860725402832 </depth>
					<next-frame>
						<transform>63.007999420166016 -11.741999626159668 117.9990005493164 -25.246999740600586 49.209999084472656 -12.46399974822998 </transform>
						<qi>0 0 0 </qi>
					</next-frame>
				</polyline>
				<polyline points="366.0018310546875 -201.39736938476562 408.7227783203125 193.38836669921875 " size="2">
					<depth>10.996939659118652 11.99675464630127 </depth>
					<next-frame>
						<transform>117.9990005493164 -25.246999740600586 75.48600006103516 -16.634000778198242 </transform>
						<qi>0 0 </qi>
					</next-frame>
				</polyline>
			</g>
		</g>
		<g frame="17" fill="none" stroke-width="3" stroke="gray" stroke-linecap="round" opacity="0.14999999999999925" size="3">
			<g name="Cube">
				<polyline points="204.471923828125 -360.7272033691406 530.551513671875 -467.35472869873047 832.601806640625 -356.4423370361328 806.0947265625 30.7882080078125 484.209228515625 176.75439453125 224.960205078125 6.78875732421875 204.471923828125 -360.7272033691406 " size="7">
					<depth>12.552112579345703 13.382894515991211 11.852129936218262 12.835267066955566 12.004485130310059 13.535249710083008 12.552112579345703 </depth>
					<next-frame>
						<transform>41.667999267578125 -9.541000366210938 7.577000141143799 1.4919999837875366 37.665000915527344 -8.942999839782715 17.049999237060547 -10.170999526977539 60.391998291015625 -14.192999839782715 19.14299964904785 -1.1829999685287476 41.667999267578125 -9.541000366210938 </transform>
						<qi>0 0 0 0 0 0 0 </qi>
					</next-frame>
				</polyline>
				<polyline points="832.601806640625 -356.4423370361328 484.001220703125 -226.64471435546875 204.471923828125 -360.7272033691406 " size="3">
					<depth>11.852129936218262 11.021347045898438 12.552112579345703 </depth>
					<next-frame>
						<transform>37.665000915527344 -8.942999839782715 88.48300170898438 -21.375999450683594 41.667999267578125 -9.541000366210938 </transform>
						<qi>0 0 0 </qi>
					</next-frame>
				</polyline>
				<polyline points="484.001220703125 -226.64471435546875 484.209228515625 176.75439453125 " size="2">
					<depth>11.021347045898438 12.004485130310059 </depth>
					<next-frame>
						<transform>88.48300170898438 -21.375999450683594 60.391998291015625 -14.192999839782715 </transform>
						<qi>0 0 </qi>
					</next-frame>
				</polyline>
			</g>
		</g>
		<g frame="18" fill="none" stroke-width="3" stroke="gray" stroke-linecap="round" opacity="0.0999999999999992" size="3">
			<g name="Cube">
				<polyline points="246.140380859375 -370.2679901123047 538.1285400390625 -465.86243438720703 870.266845703125 -365.3856201171875 823.14453125 20.617431640625 544.60107421875 162.56182861328125 244.1031494140625 5.606201171875 246.140380859375 -370.2679901123047 " size="7">
					<depth>12.488171577453613 13.539878845214844 12.123814582824707 13.066509246826172 12.014801979064941 13.430866241455078 12.488171577453613 </depth>
					<next-frame>
						<transform>28.14299964904785 -6.131999969482422 3.5869998931884766 1.5149999856948853 19.481000900268555 -5.546000003814697 9.392999649047852 -6.111999988555908 39.612998962402344 -9.833999633789062 15.331999778747559 -0.5210000276565552 28.14299964904785 -6.131999969482422 </transform>
						<qi>0 0 0 0 0 0 0 </qi>
					</next-frame>
				</polyline>
				<polyline points="870.266845703125 -365.3856201171875 572.48388671875 -248.02117919921875 246.140380859375 -370.2679901123047 " size="3">
					<depth>12.123814582824707 11.072107315063477 12.488171577453613 </depth>
					<next-frame>
						<transform>19.481000900268555 -5.546000003814697 54.810001373291016 -14.468000411987305 28.14299964904785 -6.131999969482422 </transform>
						<qi>0 0 0 </qi>
					</next-frame>
				</polyline>
				<polyline points="572.48388671875 -248.02117919921875 544.60107421875 162.56182861328125 " size="2">
					<depth>11.072107315063477 12.014801979064941 </depth>
					<next-frame>
						<transform>54.810001373291016 -14.468000411987305 39.612998962402344 -9.833999633789062 </transform>
						<qi>0 0 </qi>
					</next-frame>
				</polyline>
			</g>
		</g>
		<g frame="19" fill="none" stroke-width="3" stroke="gray" stroke-linecap="round" opacity="0.049999999999999156" size="3">
			<g name="Cube">
				<polyline points="274.2833251953125 -376.39984130859375 541.7156982421875 -464.34774017333984 889.748046875 -370.93199157714844 832.537109375 14.50506591796875 584.2144775390625 152.72735595703125 259.43505859375 5.0848388671875 274.2833251953125 -376.39984130859375 " size="7">
					<depth>12.45266056060791 13.636478424072266 12.302836418151855 13.20836067199707 12.024542808532715 13.358185768127441 12.45266056060791 </depth>
					<next-frame>
						<transform>10.128999710083008 -2.1630001068115234 1.0499999523162842 0.6389999985694885 6.031000137329102 -1.9019999504089355 3.068000078201294 -2.072999954223633 14.079999923706055 -3.6070001125335693 5.979000091552734 -0.16099999845027924 10.128999710083008 -2.1630001068115234 </transform>
						<qi>0 0 0 0 0 0 0 </qi>
					</next-frame>
				</polyline>
				<polyline points="889.748046875 -370.93199157714844 627.29345703125 -262.4895935058594 274.2833251953125 -376.39984130859375 " size="3">
					<depth>12.302836418151855 11.1190185546875 12.45266056060791 </depth>
					<next-frame>
						<transform>6.031000137329102 -1.9019999504089355 18.836999893188477 -5.215000152587891 10.128999710083008 -2.1630001068115234 </transform>
						<qi>0 0 0 </qi>
					</next-frame>
				</polyline>
				<polyline points="627.29345703125 -262.4895935058594 584.2144775390625 152.72735595703125 " size="2">
					<depth>11.1190185546875 12.024542808532715 </depth>
					<next-frame>
						<transform>18.836999893188477 -5.215000152587891 14.079999923706055 -3.6070001125335693 </transform>
						<qi>0 0 </qi>
					</next-frame>
				</polyline>
			</g>
		</g>
		<g frame="20" fill="none" stroke-width="3" stroke="black" stroke-linecap="round" opacity="1" size="3">
			<g name="Cube">
				<polyline points="284.4124755859375 -378.5630340576172 542.7657470703125 -463.7087097167969 895.7789306640625 -372.83351135253906 835.604736328125 12.43157958984375 598.2943115234375 149.1199951171875 265.4140625 4.9239501953125 284.4124755859375 -378.5630340576172 " size="7">
					<depth>12.441253662109375 13.669594764709473 12.366477966308594 13.257020950317383 12.028679847717285 13.331796646118164 12.441253662109375 </depth>
				</polyline>
				<polyline points="895.7789306640625 -372.83351135253906 646.130615234375 -267.7042541503906 284.4124755859375 -378.5630340576172 " size="3">
					<depth>12.366477966308594 11.138136863708496 12.441253662109375 </depth>
				</polyline>
				<polyline points="646.130615234375 -267.7042541503906 598.2943115234375 149.1199951171875 " size="2">
					<depth>11.138136863708496 12.028679847717285 </depth>
				</polyline>
			</g>
		</g>
	</g>
</svg>
